Atelier : R pour la linguistique
…
Dans cet atelier, nous présentons une introduction complète au language R pour l’étude de la linguistique. R est un language de programmation libre avec le code source ouvert qui est particulièrement populaire dans les sciences naturelles et sociales. Nous commençons par une introduction générale aux fonctions permettant de télécharger, visualiser et manipuler des données structurées sous forme de tableau. Ensuite, nous continuons à étudier des modèles specifiques pour l’étude du langage. Nous finissons avec l’application des interfaces de programmation d’application (API) pour usage des grands modèles de langage. Dans tous les exemples, nous employons les données qui provienne de divers parties de la linguistique.

1. Configuration

Pour suivre des exemples vous-mêmes, vous pouvez également exécuter le code dans Google Colab ou télécharger R et RStudio dans votre propre ordinateur.

2. Données dans un tableau

Nous commençons avec des données de la production des voyelles anglaises qui viennent d’une étude de 139 personnes en 1995 (Hillenbrand et al.). Je les ai choisies parce qu’elles sont suffisamment petites pour une première application mais assez complèxes pour être intéressantes.

J’ai préparé cette collection dans un fichier CSV. Vous pouvez également enregistrer vos données en format CSV en utilisant tous les tableurs comme LibreOffice, Google Sheets ou Excel. Afin de charger ces données dans R, on peut utiliser la fonction read_csv2. Cette fonction nécessite un argument qui spécifie le chemin d’accès au fichier par rapport au code. Voici est un exemple de charger les données de la production des voyelles anglaises :

read_csv2("data/hillenbrand_voyelle_eng.csv")

# A tibble: 1,668 × 8
      id groupe ipa     dur    f0    f1    f2    f3
   <dbl> <chr>  <chr> <dbl> <dbl> <dbl> <dbl> <dbl>
 1     1 fille  æ       257   238   630  2423  3166
 2     1 fille  ɑ       212   241   831  1676  2602
 3     1 fille  ɔ       242   247   725  1384  2642
 4     1 fille  ɛ       184   214   713  2095  3129
 5     1 fille  e       222   230   534  2690  3335
 6     1 fille  ɜ˞      227   240   608  1733  2159
 7     1 fille  ɪ       197   263   551  2393  3324
 8     1 fille  i       237   277   554  3022  3541
 9     1 fille  o       267   250   693  1235  2850
10     1 fille  ʊ       184   247   553  1495  2868
# ℹ 1,658 more rows
…
# A tibble: 4 × 8
     id groupe ipa     dur    f0    f1    f2    f3
  <dbl> <chr>  <chr> <dbl> <dbl> <dbl> <dbl> <dbl>
1     1 fille  æ       257   238   630  2423  3166
2     1 fille  ɑ       212   241   831  1676  2602
3     1 fille  ɔ       242   247   725  1384  2642
4     1 fille  ɛ       184   214   713  2095  3129

Le verbe filter retienne les lignes selon une relation entre les valeurs. Pour appliquer cette fonction, on place une expression à l’intérieur avec les noms des colonnes. Les lignes ou l’expression est vrai seront conservées. Voici un exemple de trouver les lignes de la voyelle u.

phone |>
  filter(ipa == "u")

# A tibble: 139 × 8
      id groupe ipa     dur    f0    f1    f2    f3
   <dbl> <chr>  <chr> <dbl> <dbl> <dbl> <dbl> <dbl>
 1     1 fille  u       253   246   502  1540  3176
 2     2 fille  u       327   287   559  1312  2870
 3     3 fille  u       304   194   506  2378  2991
 4     4 fille  u       292   258   503  1104  3346
 5     5 fille  u       260   240   481  1226  3131
 6     6 fille  u       303   330   609  1658  2644
 7     7 fille  u       262   228   440  1124  3117
 8     8 fille  u       211   255   503  1119  3100
 9     9 fille  u       275   215   463  1676  2976
10    10 fille  u       246   197   430  1448  2896
# ℹ 129 more rows

Pour réorganiser des lignes par les valeurs dans une ou plusieurs colonnes, nous appliquons la fonction arrange. Nous simplement indiquons le nom de colonne dans la fonction.

phone |>
  arrange(dur)

# A tibble: 1,668 × 8
      id groupe ipa     dur    f0    f1    f2    f3
   <dbl> <chr>  <chr> <dbl> <dbl> <dbl> <dbl> <dbl>
 1    74 homme  ʊ       111   156   463  1086  2453
 2    71 homme  ɛ       125   128   636  1893  2765
 3    90 homme  u       125   171   374   887  2478
 4    74 homme  ʌ       128   152   622  1285  2472
 5    59 homme  ɪ       134   145   424  1913  2556
 6    74 homme  ɪ       134   165   440  2119  2694
 7    75 homme  ʊ       134   160   500  1067  2435
 8     7 fille  ɛ       135   205   605  2445  3265
 9    22 fille  ɪ       137   229   447  2645  3302
10    64 homme  ɛ       138   128   615  1624  2265
# ℹ 1,658 more rows

La réorganisation des lignes, par défaut, trie les lignes par ordre croissant. Pour un ordre décroissant, nous ajoutons la fonction desc.

phone |>
  arrange(desc(dur))

# A tibble: 1,668 × 8
      id groupe ipa     dur    f0    f1    f2    f3
   <dbl> <chr>  <chr> <dbl> <dbl> <dbl> <dbl> <dbl>
 1    93 femme  æ       486   214   624  2442  3091
 2    19 fille  e       465   232   463  2745  3155
 3   111 femme  ɔ       465   226   698  1127  2886
 4    93 femme  ɔ       464   211   760  1225  2796
 5   115 femme  æ       461   220   646  2406  3283
 6    31 garçon æ       456   227   682  2638  3510
 7   126 femme  ɑ       455   208   952  1676  2862
 8    93 femme  e       453   220   477  2704  3102
 9    24 fille  æ       451   220   643  2434  3326
10    93 femme  ɑ       443   209   883  1682  2962
# ℹ 1,658 more rows
…
Le verbe mutate ajoute une colonne au tableau. Cela marche avec un nom de nouvelle colonne et la formule pour créer des autres colonnes. Par example, au-dessous on a un exemple de la création d’une colonne dur_s (durée en secondes) qui est définé par la durée (en milliseconds) divisé par 1000.

phone |>
  mutate(dur_s = dur / 1000)

# A tibble: 1,668 × 9
      id groupe ipa     dur    f0    f1    f2    f3 dur_s
   <dbl> <chr>  <chr> <dbl> <dbl> <dbl> <dbl> <dbl> <dbl>
 1     1 fille  æ       257   238   630  2423  3166 0.257
 2     1 fille  ɑ       212   241   831  1676  2602 0.212
 3     1 fille  ɔ       242   247   725  1384  2642 0.242
 4     1 fille  ɛ       184   214   713  2095  3129 0.184
 5     1 fille  e       222   230   534  2690  3335 0.222
 6     1 fille  ɜ˞      227   240   608  1733  2159 0.227
 7     1 fille  ɪ       197   263   551  2393  3324 0.197
 8     1 fille  i       237   277   554  3022  3541 0.237
 9     1 fille  o       267   250   693  1235  2850 0.267
10     1 fille  ʊ       184   247   553  1495  2868 0.184
# ℹ 1,658 more rows
…
Maintenant nous avons une base solide de verbes et fonctions de la visualisation. Tous ces éléments sont au cœur de la science des données. Dans la section suivante, nous ajoutons des fonctions de modélisation.

5. Les modèles statistiques

Voici, nous commençons par importer les données issues d’un enregistrement de frappes au clavier. Il s’agit d’un fichier compressé contenant des mesures temporelles pour chaque touche pressée. La fonction utilisée permet de lire un fichier CSV avec un séparateur particulier et de convertir automatiquement les valeurs manquantes. L’objectif ici est simplement de charger l’ensemble des observations et de vérifier que le tableau obtenu s’affiche correctement, afin de pouvoir ensuite sélectionner les variables utiles et préparer les analyses statistiques.

touches <- read_csv2("data/keylog-touches.csv.bz2", na="NA")
touches

# A tibble: 1,145,874 × 7
   id                    t0     t1   dur touche code  gap_apres
   <chr>              <dbl>  <dbl> <dbl> <chr>  <chr>     <dbl>
 1 R_00RbUqO7jXLDItP 20914. 20978.  64.4 "I"    KeyI      232. 
 2 R_00RbUqO7jXLDItP 21146. 21226.  80.1 "f"    KeyF       88.1
 3 R_00RbUqO7jXLDItP 21234. 21290.  55.8 ""     Space     840. 
 4 R_00RbUqO7jXLDItP 22074. 22154.  80.2 "I"    KeyI      232. 
 5 R_00RbUqO7jXLDItP 22306. 22394.  88.2 ""     Space    1368. 
 6 R_00RbUqO7jXLDItP 23674. 23739.  64.3 "c"    KeyC      144. 
 7 R_00RbUqO7jXLDItP 23818. 23874.  56.1 "o"    KeyO      225. 
 8 R_00RbUqO7jXLDItP 24044. 24090.  46.6 "u"    KeyU     1023. 
 9 R_00RbUqO7jXLDItP 25066. 25130.  64   "l"    KeyL      104. 
10 R_00RbUqO7jXLDItP 25170. 25250   79.8 "d"    KeyD      120  
# ℹ 1,145,864 more rows
…
Residual standard error: 4494 on 1145049 degrees of freedom
  (823 observations effacées parce que manquantes)
Multiple R-squared:  0.0005966, Adjusted R-squared:  0.0005957 
F-statistic: 683.5 on 1 and 1145049 DF,  p-value: < 2.2e-16

6. Plusieurs tableaux

Dans cette nouvelle section, nous commençons par charger un second tableau de données contenant des informations descriptives sur les utilisateurs ou les sessions de frappe. Ce fichier regroupe généralement des métadonnées telles que la langue, le niveau déclaré ou d’autres caractéristiques permettant de mieux contextualiser les mesures. L’affichage immédiat du tableau permet de se familiariser avec sa structure avant de le combiner à d’autres sources d’information.

meta <- read_csv2("data/keylog-meta.csv.bz2")
meta

# A tibble: 823 × 4
   id                  age lang    cefr 
   <chr>             <dbl> <chr>   <chr>
 1 R_2EGIsZARLydD3Uc    25 Italian C1/C2
 2 R_1obCaysaZCWZXoG    22 Spanish B1/B2
 3 R_3fqTek829k38iCk    22 Polish  B1/B2
 4 R_brxD7Q5ZnPW8Gn7    43 English C1/C2
 5 R_1k1RE78cBbZyZMA    23 Polish  B1/B2
 6 R_1NwuZMzRkVIR0WT    32 English C1/C2
 7 R_2t8LOS9nQDBQPA8    24 Spanish C1/C2
 8 R_239Q0X5YLwB7U6Z    28 English C1/C2
 9 R_10xbkjEmnsusfb1    32 Polish  B1/B2
10 R_10CbLBzAnYKgWxB    21 Polish  B1/B2
# ℹ 813 more rows

Nous importons ensuite un troisième tableau, cette fois centré sur des mesures liées aux mots eux-mêmes. Il peut s’agir, par exemple, de durées de frappe associées à chaque mot tapé, ce qui fournit une information plus synthétique que l’analyse touche par touche. De la même façon, on affiche les données brutes afin de repérer les variables disponibles et vérifier que le chargement s’est déroulé correctement.

mots <- read_csv2("data/keylog-mots.csv.bz2")
mots

# A tibble: 210,335 × 5
   id                mot    dur_mot    d1    d2
   <chr>             <chr>    <dbl> <dbl> <dbl>
 1 R_00RbUqO7jXLDItP If       312.   928.  848.
 2 R_00RbUqO7jXLDItP I         80.2 1600. 1520 
 3 R_00RbUqO7jXLDItP could   1576.  2168. 2088.
 4 R_00RbUqO7jXLDItP choose   945.   976.  904.
 5 R_00RbUqO7jXLDItP to       200.   930.  849.
 6 R_00RbUqO7jXLDItP be       151    528.  456.
 7 R_00RbUqO7jXLDItP any      440.   264   168.
 8 R_00RbUqO7jXLDItP animal  1560    976.  888 
 9 R_00RbUqO7jXLDItP for      264.   248   176.
10 R_00RbUqO7jXLDItP one      312   1120. 1048.
# ℹ 210,325 more rows

Une fois ces deux tableaux disponibles, nous effectuons une jonction entre eux à partir d’un identifiant commun. Cette opération permet de combiner les caractéristiques présentes dans les métadonnées avec les observations relatives aux mots, enrichissant ainsi chaque ligne d’information contextuelle supplémentaire. Le résultat est une table fusionnée où les durées ou autres mesures des mots peuvent être interprétées en fonction des profils utilisateurs.

mots |>
  left_join(meta, by = "id")

# A tibble: 210,335 × 8
   id                mot    dur_mot    d1    d2   age lang    cefr 
   <chr>             <chr>    <dbl> <dbl> <dbl> <dbl> <chr>   <chr>
 1 R_00RbUqO7jXLDItP If       312.   928.  848.    28 Italian C1/C2
 2 R_00RbUqO7jXLDItP I         80.2 1600. 1520     28 Italian C1/C2
 3 R_00RbUqO7jXLDItP could   1576.  2168. 2088.    28 Italian C1/C2
 4 R_00RbUqO7jXLDItP choose   945.   976.  904.    28 Italian C1/C2
 5 R_00RbUqO7jXLDItP to       200.   930.  849.    28 Italian C1/C2
 6 R_00RbUqO7jXLDItP be       151    528.  456.    28 Italian C1/C2
 7 R_00RbUqO7jXLDItP any      440.   264   168.    28 Italian C1/C2
 8 R_00RbUqO7jXLDItP animal  1560    976.  888     28 Italian C1/C2
 9 R_00RbUqO7jXLDItP for      264.   248   176.    28 Italian C1/C2
10 R_00RbUqO7jXLDItP one      312   1120. 1048.    28 Italian C1/C2
# ℹ 210,325 more rows
…
7. Les fonctions de fenêtre

Dans cette section, nous commençons par créer un tableau simplifié contenant uniquement les variables essentielles pour illustrer l’usage des fonctions de fenêtre. Cette réduction permet de se concentrer sur les éléments temporels fondamentaux comme les instants de début et de fin des frappes, la durée d’appui ainsi que les identifiants des touches et des utilisateurs. L’objectif est de disposer d’une version plus légère des données afin de faciliter les manipulations ultérieures et de rendre l’exemple plus clair pour un lecteur découvrant ces techniques.

touches_min

# A tibble: 1,145,874 × 6
   id                    t0     t1   dur touche code 
   <chr>              <dbl>  <dbl> <dbl> <chr>  <chr>
 1 R_00RbUqO7jXLDItP 20914. 20978.  64.4 "I"    KeyI 
 2 R_00RbUqO7jXLDItP 21146. 21226.  80.1 "f"    KeyF 
 3 R_00RbUqO7jXLDItP 21234. 21290.  55.8 ""     Space
 4 R_00RbUqO7jXLDItP 22074. 22154.  80.2 "I"    KeyI 
 5 R_00RbUqO7jXLDItP 22306. 22394.  88.2 ""     Space
 6 R_00RbUqO7jXLDItP 23674. 23739.  64.3 "c"    KeyC 
 7 R_00RbUqO7jXLDItP 23818. 23874.  56.1 "o"    KeyO 
 8 R_00RbUqO7jXLDItP 24044. 24090.  46.6 "u"    KeyU 
 9 R_00RbUqO7jXLDItP 25066. 25130.  64   "l"    KeyL 
10 R_00RbUqO7jXLDItP 25170. 25250   79.8 "d"    KeyD 
# ℹ 1,145,864 more rows

Après cette sélection ciblée, nous affichons simplement le tableau obtenu pour permettre une vérification visuelle du contenu. Cette étape est utile pour confirmer que les variables conservées correspondent bien aux besoins de l’analyse et que les transformations précédentes n’ont pas introduit d’erreur.

touches_min |>
  arrange(id, t0) |>
  group_by(id) |>
  mutate(
    diff_avant = t0 - lag(t0, n=1),
    diff_apres = lead(t0, n=1) - t0,
    gap_avant = t0 - lag(t1, n=1),
    gap_apres = lead(t0, n=1) - t1,    
  )

# A tibble: 1,145,874 × 10
# Groups:   id [823]
   id               t0     t1   dur touche code  diff_avant diff_apres gap_avant
   <chr>         <dbl>  <dbl> <dbl> <chr>  <chr>      <dbl>      <dbl>     <dbl>
 1 R_00RbUqO7j… 20914. 20978.  64.4 "I"    KeyI        NA        232.       NA  
 2 R_00RbUqO7j… 21146. 21226.  80.1 "f"    KeyF       232.        88.1     168. 
 3 R_00RbUqO7j… 21234. 21290.  55.8 ""     Space       88.1      840.        8  
 4 R_00RbUqO7j… 22074. 22154.  80.2 "I"    KeyI       840.       232.      784  
 5 R_00RbUqO7j… 22306. 22394.  88.2 ""     Space      232.      1368.      152. 
 6 R_00RbUqO7j… 23674. 23739.  64.3 "c"    KeyC      1368.       144.     1280. 
 7 R_00RbUqO7j… 23818. 23874.  56.1 "o"    KeyO       144.       225.       79.8
 8 R_00RbUqO7j… 24044. 24090.  46.6 "u"    KeyU       225.      1023.      169. 
 9 R_00RbUqO7j… 25066. 25130.  64   "l"    KeyL      1023.       104.      976  
10 R_00RbUqO7j… 25170. 25250   79.8 "d"    KeyD       104.       120        39.9
# ℹ 1,145,864 more rows
# ℹ 1 more variable: gap_apres <dbl>
…
Enfin, le dernier bloc explore l’utilisation de fenêtres glissantes plus larges permettant de calculer des moyennes mobiles sur différents horizons. Après avoir filtré un utilisateur particulier, nous ordonnons ses frappes puis appliquons plusieurs tailles de fenêtre afin de lisser progressivement les durées observées. Cela donne des courbes plus ou moins réactives aux variations locales : une petite fenêtre suit de près les changements instantanés, tandis qu’une grande fenêtre met en évidence des tendances plus globales. Le graphique obtenu superpose ces différentes moyennes, offrant une visualisation intuitive de l’évolution du rythme de frappe au cours du temps.

8. Expressions régulières

Dans cette section, nous introduisons l’usage des expressions régulières pour analyser le contenu textuel des mots enregistrés. Le premier bloc montre comment ajouter une variable indiquant la longueur de chaque mot. La fonction utilisée permet de compter le nombre de caractères avec précision, y compris dans des contextes multilingues. Disposer de cette information est essentiel pour comprendre comment les propriétés internes d’un mot influencent les temps de frappe ou d’autres mesures liées à la saisie.

mots |>
  mutate(nchar = stri_length(mot))

# A tibble: 210,335 × 6
   id                mot    dur_mot    d1    d2 nchar
   <chr>             <chr>    <dbl> <dbl> <dbl> <int>
 1 R_00RbUqO7jXLDItP If       312.   928.  848.     2
 2 R_00RbUqO7jXLDItP I         80.2 1600. 1520      1
 3 R_00RbUqO7jXLDItP could   1576.  2168. 2088.     5
 4 R_00RbUqO7jXLDItP choose   945.   976.  904.     6
 5 R_00RbUqO7jXLDItP to       200.   930.  849.     2
 6 R_00RbUqO7jXLDItP be       151    528.  456.     2
 7 R_00RbUqO7jXLDItP any      440.   264   168.     3
 8 R_00RbUqO7jXLDItP animal  1560    976.  888      6
 9 R_00RbUqO7jXLDItP for      264.   248   176.     3
10 R_00RbUqO7jXLDItP one      312   1120. 1048.     3
# ℹ 210,325 more rows
…
Nous introduisons ensuite une expression régulière simple servant à détecter la présence de lettres majuscules dans chaque mot. Cette étape crée une nouvelle variable booléenne qui indique si un mot comporte au moins un caractère majuscule. Une telle transformation peut être utile pour distinguer des catégories lexicales (comme les noms propres) ou pour repérer des variations dans la manière dont les participants ont saisi le texte.

mots |>
  mutate(nombre_maj = stri_detect(mot, regex = "[A-Z]"))

# A tibble: 210,335 × 6
   id                mot    dur_mot    d1    d2 nombre_maj
   <chr>             <chr>    <dbl> <dbl> <dbl> <lgl>     
 1 R_00RbUqO7jXLDItP If       312.   928.  848. TRUE      
 2 R_00RbUqO7jXLDItP I         80.2 1600. 1520  TRUE      
 3 R_00RbUqO7jXLDItP could   1576.  2168. 2088. FALSE     
 4 R_00RbUqO7jXLDItP choose   945.   976.  904. FALSE     
 5 R_00RbUqO7jXLDItP to       200.   930.  849. FALSE     
 6 R_00RbUqO7jXLDItP be       151    528.  456. FALSE     
 7 R_00RbUqO7jXLDItP any      440.   264   168. FALSE     
 8 R_00RbUqO7jXLDItP animal  1560    976.  888  FALSE     
 9 R_00RbUqO7jXLDItP for      264.   248   176. FALSE     
10 R_00RbUqO7jXLDItP one      312   1120. 1048. FALSE     
# ℹ 210,325 more rows
…
Enfin, le dernier bloc propose une autre utilisation des expressions régulières, cette fois pour estimer le nombre approximatif de syllabes dans chaque mot. La règle mise en œuvre compte les groupes successifs de voyelles, ce qui fournit une estimation simple mais informative de la structure phonétique du mot. De telles mesures peuvent être mobilisées pour relier la complexité linguistique à la vitesse de frappe ou à d’autres paramètres comportementaux.

mots |>
  mutate(nsyl = stri_count(mot, regex = "[aeiouyAEIOUY]+"))

# A tibble: 210,335 × 6
   id                mot    dur_mot    d1    d2  nsyl
   <chr>             <chr>    <dbl> <dbl> <dbl> <int>
 1 R_00RbUqO7jXLDItP If       312.   928.  848.     1
 2 R_00RbUqO7jXLDItP I         80.2 1600. 1520      1
 3 R_00RbUqO7jXLDItP could   1576.  2168. 2088.     1
 4 R_00RbUqO7jXLDItP choose   945.   976.  904.     2
 5 R_00RbUqO7jXLDItP to       200.   930.  849.     1
 6 R_00RbUqO7jXLDItP be       151    528.  456.     1
 7 R_00RbUqO7jXLDItP any      440.   264   168.     2
 8 R_00RbUqO7jXLDItP animal  1560    976.  888      3
 9 R_00RbUqO7jXLDItP for      264.   248   176.     1
10 R_00RbUqO7jXLDItP one      312   1120. 1048.     2
# ℹ 210,325 more rows
…
